<?xml version="1.0" encoding="UTF-8" standalone="no"?>
<!-- Created with Inkscape (http://www.inkscape.org/) -->

<svg
   version="1.1"
   width="49.56356mm"
   height="64.416237mm"
   id="svg4271"
   sodipodi:docname="nocking_point_height.svg"
   inkscape:version="1.1.2 (0a00cf5339, 2022-02-04)"
   xmlns:inkscape="http://www.inkscape.org/namespaces/inkscape"
   xmlns:sodipodi="http://sodipodi.sourceforge.net/DTD/sodipodi-0.dtd"
   xmlns="http://www.w3.org/2000/svg"
   xmlns:svg="http://www.w3.org/2000/svg"
   xmlns:rdf="http://www.w3.org/1999/02/22-rdf-syntax-ns#"
   xmlns:cc="http://creativecommons.org/ns#"
   xmlns:dc="http://purl.org/dc/elements/1.1/">
  <sodipodi:namedview
     id="namedview39"
     pagecolor="#ffffff"
     bordercolor="#666666"
     borderopacity="1.0"
     inkscape:pageshadow="2"
     inkscape:pageopacity="0.0"
     inkscape:pagecheckerboard="0"
     showgrid="false"
     inkscape:zoom="1.4142136"
     inkscape:cx="177.83736"
     inkscape:cy="337.64349"
     inkscape:window-width="2486"
     inkscape:window-height="1376"
     inkscape:window-x="0"
     inkscape:window-y="0"
     inkscape:window-maximized="1"
     inkscape:current-layer="svg4271"
     fit-margin-top="0"
     fit-margin-left="0"
     fit-margin-right="0"
     fit-margin-bottom="0"
     units="mm"
     inkscape:document-units="mm" />
  <defs
     id="defs4273">
    <marker
       style="overflow:visible"
       id="marker1707"
       refX="0"
       refY="0"
       orient="auto"
       inkscape:stockid="Arrow1Mend"
       inkscape:isstock="true">
      <path
         transform="matrix(-0.4,0,0,-0.4,-4,0)"
         style="fill:context-stroke;fill-rule:evenodd;stroke:context-stroke;stroke-width:1pt"
         d="M 0,0 5,-5 -12.5,0 5,5 Z"
         id="path1705" />
    </marker>
    <marker
       style="overflow:visible"
       id="marker1697"
       refX="0"
       refY="0"
       orient="auto"
       inkscape:stockid="Arrow1Mstart"
       inkscape:isstock="true">
      <path
         transform="matrix(0.4,0,0,0.4,4,0)"
         style="fill:context-stroke;fill-rule:evenodd;stroke:context-stroke;stroke-width:1pt"
         d="M 0,0 5,-5 -12.5,0 5,5 Z"
         id="path1695" />
    </marker>
    <marker
       style="overflow:visible"
       id="Arrow1Send"
       refX="0"
       refY="0"
       orient="auto"
       inkscape:stockid="Arrow1Send"
       inkscape:isstock="true">
      <path
         transform="matrix(-0.2,0,0,-0.2,-1.2,0)"
         style="fill:context-stroke;fill-rule:evenodd;stroke:context-stroke;stroke-width:1pt"
         d="M 0,0 5,-5 -12.5,0 5,5 Z"
         id="path967" />
    </marker>
    <marker
       style="overflow:visible"
       id="Arrow1Sstart"
       refX="0"
       refY="0"
       orient="auto"
       inkscape:stockid="Arrow1Sstart"
       inkscape:isstock="true">
      <path
         transform="matrix(0.2,0,0,0.2,1.2,0)"
         style="fill:context-stroke;fill-rule:evenodd;stroke:context-stroke;stroke-width:1pt"
         d="M 0,0 5,-5 -12.5,0 5,5 Z"
         id="path964" />
    </marker>
    <marker
       style="overflow:visible"
       id="Arrow1Mend"
       refX="0"
       refY="0"
       orient="auto"
       inkscape:stockid="Arrow1Mend"
       inkscape:isstock="true">
      <path
         transform="matrix(-0.4,0,0,-0.4,-4,0)"
         style="fill:context-stroke;fill-rule:evenodd;stroke:context-stroke;stroke-width:1pt"
         d="M 0,0 5,-5 -12.5,0 5,5 Z"
         id="path961" />
    </marker>
    <marker
       style="overflow:visible"
       id="Arrow1Mstart"
       refX="0"
       refY="0"
       orient="auto"
       inkscape:stockid="Arrow1Mstart"
       inkscape:isstock="true">
      <path
         transform="matrix(0.4,0,0,0.4,4,0)"
         style="fill:context-stroke;fill-rule:evenodd;stroke:context-stroke;stroke-width:1pt"
         d="M 0,0 5,-5 -12.5,0 5,5 Z"
         id="path958" />
    </marker>
    <clipPath
       clipPathUnits="userSpaceOnUse"
       id="clipPath1296">
      <rect
         style="fill:none;stroke:#000000"
         id="rect1298"
         width="194.26654"
         height="243.46294"
         x="240.16391"
         y="872.01202" />
    </clipPath>
    <clipPath
       clipPathUnits="userSpaceOnUse"
       id="clipPath1300">
      <rect
         style="fill:none;stroke:#000000"
         id="rect1302"
         width="194.26654"
         height="243.46294"
         x="4.6541991"
         y="284.28455" />
    </clipPath>
  </defs>
  <metadata
     id="metadata4276">
    <rdf:RDF>
      <cc:Work
         rdf:about="">
        <dc:format>image/svg+xml</dc:format>
        <dc:type
           rdf:resource="http://purl.org/dc/dcmitype/StillImage" />
      </cc:Work>
    </rdf:RDF>
  </metadata>
  <g
     id="g1385"
     clip-path="url(#clipPath1300)"
     transform="translate(-8.4906257,-284.28455)">
    <path
       d="m 61.58172,304.83532 c 55.35715,-112.5 106.42857,-175.35714 115.71428,-210.357139 9.28572,-35.000002 7.85715,-63.928574 8.57143,-69.64286 0.71429,-5.714286 5.00034,-7.163759 4.82144,4.285714 -0.17858,11.428572 -1.25001,64.642856 -18.39286,93.928575 -17.14286,29.28571 -94.28572,149.64285 -102.14286,185.35714 -2.85714,-0.71429 -8.57143,-3.57143 -8.57143,-3.57143 z"
       id="path4345"
       style="fill:#000000;fill-opacity:1;stroke:#000000;stroke-width:1px;stroke-linecap:butt;stroke-linejoin:miter;stroke-opacity:1"
       sodipodi:nodetypes="csssscc" />
    <path
       d="m 59.81395,628.30085 c 55.35715,112.5 108.19634,177.12491 117.48205,212.12491 9.28572,35 7.85715,63.92857 8.57143,69.64286 0.71429,5.71429 5.00034,7.16376 4.82144,-4.28571 -0.17858,-11.42858 -1.25001,-64.64286 -18.39286,-93.92858 C 155.15315,782.56862 75.98998,656.15056 68.13284,620.43627 c -2.85714,0.71429 -8.31889,7.86458 -8.31889,7.86458 z"
       id="path4345-1"
       style="fill:#000000;fill-opacity:1;stroke:#000000;stroke-width:1px;stroke-linecap:butt;stroke-linejoin:miter;stroke-opacity:1"
       sodipodi:nodetypes="csssscc" />
    <path
       d="M 191.49535,34.243331 V 890.85269"
       id="path4874"
       style="fill:none;stroke:#000000;stroke-width:1px;stroke-linecap:butt;stroke-linejoin:miter;stroke-opacity:1"
       sodipodi:nodetypes="cc" />
    <path
       d="M 191.49535,390.51812 V 490.1948"
       id="path4876"
       style="fill:none;stroke:#000000;stroke-width:3;stroke-linecap:round;stroke-linejoin:round;stroke-miterlimit:4;stroke-dasharray:none;stroke-opacity:1"
       sodipodi:nodetypes="cc" />
    <path
       d="m 191.49535,828.54546 v 71.21575"
       id="path4876-9"
       style="fill:none;stroke:#000000;stroke-width:3;stroke-linecap:round;stroke-linejoin:round;stroke-miterlimit:4;stroke-dasharray:none;stroke-opacity:1"
       sodipodi:nodetypes="cc" />
    <path
       d="M 191.49535,32.545461 V 103.76121"
       id="path4876-7"
       style="fill:none;stroke:#000000;stroke-width:3;stroke-linecap:round;stroke-linejoin:round;stroke-miterlimit:4;stroke-dasharray:none;stroke-opacity:1"
       sodipodi:nodetypes="cc" />
    <path
       d="m 60.9917,301.93375 c 0,0 5.93506,3.10419 10.40906,8.25288 6.09977,7.01962 11.43564,16.97204 13.32952,20.0314 3.28299,5.30331 5.55584,9.34391 2.02031,17.42513 -3.53553,8.08122 -19.69797,45.7094 -18.68782,67.93276 1.01015,22.22335 4.79822,45.7094 -5.3033,50.76016 -10.10153,5.05076 -12.12183,3.53553 -8.83884,9.34391 3.283,5.80838 13.00042,28.26203 23.23351,42.67895 1.92794,2.71619 -5.79305,3.49483 -6.80321,7.53544 -1.01015,4.04061 0.2685,39.20319 14.63189,66.45823 2.64584,5.02057 6.56599,3.53554 -0.50507,11.61676 -7.07107,8.08122 -21.21321,21.46574 -22.98097,23.2335 -1.76777,1.76777 -3.78808,3.283 -5.3033,-2.27284 -1.51523,-5.55584 -15.40483,-35.35534 -15.40483,-35.35534 l 4.04061,-2.77792 -7.32361,-14.14213 -3.78807,1.51523 c 0,0 -1.51523,-4.54569 -2.27284,-7.07107 -0.75762,-2.52538 7.57614,-7.82868 9.34391,-14.89975 1.76777,-7.07107 -0.25254,-38.13326 -0.25254,-48.23479 0,-10.10152 -15.9099,-22.98097 -17.67767,-29.04188 -1.76777,-6.06092 -4.29315,-10.35407 0,-13.8896 4.29315,-3.53553 13.13198,-15.15229 14.39468,-19.95051 1.26269,-4.79823 5.3033,-41.41626 5.3033,-49.49748 0,-8.08122 -5.55584,-19.1929 -7.57615,-23.23351 -2.0203,-4.04061 -1.76776,-7.07106 -0.75761,-7.57614 1.01015,-0.50508 3.78807,0.75761 3.78807,0.75761 l 6.81853,-15.15228 -3.03046,-1.26269 z"
       id="path4903"
       style="opacity:0.551181;fill:#9d9d9d;fill-opacity:1;stroke:#000000;stroke-width:1px;stroke-linecap:butt;stroke-linejoin:miter;stroke-opacity:1"
       sodipodi:nodetypes="cssssssssssssccccssssssssscccc" />
    <path
       d="m 70.20934,321.758 c 1.38896,9.72272 -1.51523,18.30901 -4.29315,27.02158 -2.77792,8.71256 -10.85914,23.10724 -10.85914,26.5165 0,3.40927 0.88389,3.15673 6.69226,3.40927 5.80838,0.25254 12.87945,0 12.87945,0 l -3.15673,9.72272 c 0,0 -28.41054,0.75761 -28.78934,-0.75762 -0.37881,-1.51523 -0.63135,-4.54569 1.01015,-7.57614 1.6415,-3.03046 18.30901,-37.50192 19.95051,-42.55268 1.6415,-5.05076 6.56599,-15.78363 6.56599,-15.78363 z"
       id="path4908"
       style="fill:#7e7e7e;fill-opacity:1;stroke:none"
       sodipodi:nodetypes="csssccsssc" />
    <path
       d="m 40.53611,436.41031 c 4.67196,-0.12627 21.90387,-0.092 29.04189,-0.25254 -6.2465,-3.9486 -10.48034,-5.80837 -13.25826,-5.80837 -2.77791,0 -9.2926,-0.2946 -11.99556,1.76776 -2.20587,1.68308 -3.78807,4.29315 -3.78807,4.29315 z"
       id="path4910"
       style="color:#000000;display:inline;overflow:visible;visibility:visible;fill:#7e7e7e;fill-opacity:1;fill-rule:nonzero;stroke:none;stroke-width:1px;marker:none;enable-background:accumulate"
       sodipodi:nodetypes="ccssc" />
    <path
       d="m 21.97456,462.1692 5.3033,-5.17703 40.65864,-0.12627 -1.38896,5.93465 z"
       id="path4929"
       style="color:#000000;display:inline;overflow:visible;visibility:visible;fill:#7e7e7e;fill-opacity:1;fill-rule:nonzero;stroke:none;stroke-width:1px;marker:none;enable-background:accumulate"
       sodipodi:nodetypes="ccccc" />
    <path
       d="m 45.58687,540.07722 c 0,9.09137 -1.76776,11.11167 1.76777,18.18274 3.53553,7.07107 8.08122,12.12183 9.09137,17.1726 1.01016,5.05076 5.05077,20.20305 6.06092,22.72843 1.01015,2.52538 5.3033,10.85914 5.80838,12.37437 0.50507,1.51523 1.51522,-3.78808 1.51522,-7.07107 0,-3.283 -0.25253,-16.41498 -2.52538,-21.46574 -2.27284,-5.05076 -5.55584,-9.34392 -6.06092,-10.60661 -0.50507,-1.26269 -8.33375,-10.10152 -9.09136,-14.64721 -0.75762,-4.54568 -0.25254,-11.86929 -1.76777,-14.14213 -1.51523,-2.27284 -4.79823,-2.52538 -4.79823,-2.52538 z"
       id="path4937"
       style="color:#000000;display:inline;overflow:visible;visibility:visible;fill:#7e7e7e;fill-opacity:1;fill-rule:nonzero;stroke:none;stroke-width:1px;marker:none;enable-background:accumulate"
       sodipodi:nodetypes="csssssssssc" />
    <path
       d="m 64.2747,524.16731 c 0,0 1.01015,14.89975 -0.50508,15.40483 -1.51523,0.50508 -15.15229,-5.3033 -15.15229,-7.57614 0,-2.27285 9.84899,-8.5863 15.65737,-7.82869 z"
       id="path4945"
       style="color:#000000;display:inline;overflow:visible;visibility:visible;fill:#e8e8e8;fill-opacity:1;fill-rule:nonzero;stroke:none;stroke-width:1px;marker:none;enable-background:accumulate"
       sodipodi:nodetypes="cssc" />
    <path
       d="m 30.10657,358.15621 8.11469,3.50385 6.5572,-15.18605 -8.11469,-3.50385 z"
       id="path4953"
       style="color:#000000;display:inline;overflow:visible;visibility:visible;fill:#7e7e7e;fill-opacity:1;fill-rule:nonzero;stroke:none;stroke-width:1px;marker:none;enable-background:accumulate"
       sodipodi:nodetypes="ccccc" />
    <path
       d="m 37.50375,590.86993 7.85189,-4.05869 -7.59554,-14.69423 -7.85189,4.05869 z"
       id="path4953-9"
       style="color:#000000;display:inline;overflow:visible;visibility:visible;fill:#7e7e7e;fill-opacity:1;fill-rule:nonzero;stroke:none;stroke-width:1px;marker:none;enable-background:accumulate"
       sodipodi:nodetypes="ccccc" />
    <path
       d="m 194.11253,422.31207 h -5.23436"
       id="path4876-0"
       style="fill:none;stroke:#000000;stroke-width:3;stroke-linecap:round;stroke-linejoin:round;stroke-miterlimit:4;stroke-dasharray:none;stroke-opacity:1"
       sodipodi:nodetypes="cc" />
  </g>
  <g
     id="g1566"
     transform="translate(-244.00034,-872.01203)"
     clip-path="url(#clipPath1296)">
    <rect
       style="fill:#000000;fill-opacity:1;stroke:#000000;stroke-width:1;stroke-miterlimit:4;stroke-dasharray:none"
       id="rect1357"
       width="163.8428"
       height="6.2773438"
       x="244.50034"
       y="1014.2305" />
    <path
       style="fill:none;stroke:#ffffff;stroke-width:1px;stroke-linecap:butt;stroke-linejoin:miter;stroke-opacity:1"
       d="m 256.87549,1021.021 -0.0105,-1.9722"
       id="path1663-7-1-9-62-84"
       sodipodi:nodetypes="cc" />
    <path
       style="fill:none;stroke:#ffffff;stroke-width:1px;stroke-linecap:butt;stroke-linejoin:miter;stroke-opacity:1"
       d="m 361.07054,1021.021 -0.0105,-1.9722"
       id="path1663-7-1-9-62-7"
       sodipodi:nodetypes="cc" />
    <path
       style="fill:none;stroke:#ffffff;stroke-width:1px;stroke-linecap:butt;stroke-linejoin:miter;stroke-opacity:1"
       d="m 351.59827,1021.021 -0.0105,-1.9722"
       id="path1663-7-1-9-62-94"
       sodipodi:nodetypes="cc" />
    <path
       style="fill:none;stroke:#ffffff;stroke-width:1px;stroke-linecap:butt;stroke-linejoin:miter;stroke-opacity:1"
       d="m 365.80143,1021.0237 v -4.4798"
       id="path1663-7-1-9-0-7-28-1"
       sodipodi:nodetypes="cc" />
    <path
       style="fill:none;stroke:#ffffff;stroke-width:1px;stroke-linecap:butt;stroke-linejoin:miter;stroke-opacity:1"
       d="m 356.32915,1021.0237 v -4.4798"
       id="path1663-7-1-9-0-7-28-3"
       sodipodi:nodetypes="cc" />
    <path
       style="fill:none;stroke:#ffffff;stroke-width:1px;stroke-linecap:butt;stroke-linejoin:miter;stroke-opacity:1"
       d="m 252.13409,1021.0237 v -4.4798"
       id="path1663-7-1-9-0-7-28-9"
       sodipodi:nodetypes="cc" />
    <path
       style="fill:none;stroke:#ffffff;stroke-width:1px;stroke-linecap:butt;stroke-linejoin:miter;stroke-opacity:1"
       d="m 261.60638,1021.0237 v -4.4798"
       id="path1663-7-1-9-0-7-28-2"
       sodipodi:nodetypes="cc" />
    <path
       style="fill:none;stroke:#ffffff;stroke-width:1px;stroke-linecap:butt;stroke-linejoin:miter;stroke-opacity:1"
       d="m 266.34777,1021.021 -0.0105,-1.9722"
       id="path1663-7-1-9-62-8-1"
       sodipodi:nodetypes="cc" />
    <path
       style="fill:none;stroke:#ffffff;stroke-width:1px;stroke-linecap:butt;stroke-linejoin:miter;stroke-opacity:1"
       d="m 275.82006,1021.021 -0.0105,-1.9722"
       id="path1663-7-1-9-62-8-6"
       sodipodi:nodetypes="cc" />
    <path
       style="fill:none;stroke:#ffffff;stroke-width:1px;stroke-linecap:butt;stroke-linejoin:miter;stroke-opacity:1"
       d="m 285.29235,1021.021 -0.0105,-1.9722"
       id="path1663-7-1-9-62-8-3"
       sodipodi:nodetypes="cc" />
    <path
       style="fill:none;stroke:#ffffff;stroke-width:1px;stroke-linecap:butt;stroke-linejoin:miter;stroke-opacity:1"
       d="m 294.76462,1021.021 -0.0105,-1.9722"
       id="path1663-7-1-9-62-8-7"
       sodipodi:nodetypes="cc" />
    <path
       style="fill:none;stroke:#ffffff;stroke-width:1px;stroke-linecap:butt;stroke-linejoin:miter;stroke-opacity:1"
       d="m 304.23689,1021.021 -0.0105,-1.9722"
       id="path1663-7-1-9-62-8-9"
       sodipodi:nodetypes="cc" />
    <path
       style="fill:none;stroke:#ffffff;stroke-width:1px;stroke-linecap:butt;stroke-linejoin:miter;stroke-opacity:1"
       d="m 271.07867,1021.0237 v -4.4798"
       id="path1663-7-1-9-0-7-28"
       sodipodi:nodetypes="cc" />
    <path
       style="fill:none;stroke:#ffffff;stroke-width:1px;stroke-linecap:butt;stroke-linejoin:miter;stroke-opacity:1"
       d="m 280.55095,1021.0237 v -4.4798"
       id="path1663-7-1-9-0-7-2"
       sodipodi:nodetypes="cc" />
    <path
       style="fill:none;stroke:#ffffff;stroke-width:1px;stroke-linecap:butt;stroke-linejoin:miter;stroke-opacity:1"
       d="m 290.02323,1021.0237 v -4.4798"
       id="path1663-7-1-9-0-7-9"
       sodipodi:nodetypes="cc" />
    <path
       style="fill:none;stroke:#ffffff;stroke-width:1px;stroke-linecap:butt;stroke-linejoin:miter;stroke-opacity:1"
       d="m 299.49551,1021.0237 v -4.4798"
       id="path1663-7-1-9-0-7-5"
       sodipodi:nodetypes="cc" />
    <rect
       style="fill:#000000;fill-opacity:1;stroke:#000000;stroke-width:1;stroke-miterlimit:4;stroke-dasharray:none"
       id="rect1359"
       width="8.4599609"
       height="68.553711"
       x="409.14389"
       y="983.09235" />
    <path
       style="fill:none;stroke:#ffffff;stroke-width:1px;stroke-linecap:butt;stroke-linejoin:miter;stroke-opacity:1"
       d="m 416.15353,1031.8741 1.97227,-0.011"
       id="path1663-7-1-9-62-9-7"
       sodipodi:nodetypes="cc" />
    <rect
       style="fill:none;fill-opacity:1;stroke:#000000;stroke-width:1;stroke-miterlimit:4;stroke-dasharray:none"
       id="rect1499"
       width="12.695467"
       height="2.7593737"
       x="418.13171"
       y="987.5979" />
    <rect
       style="fill:none;fill-opacity:1;stroke:#000000;stroke-width:1;stroke-miterlimit:4;stroke-dasharray:none"
       id="rect1499-6"
       width="12.695467"
       height="2.7593737"
       x="418.13171"
       y="1043.7211" />
    <path
       style="fill:none;stroke:#ffffff;stroke-width:1px;stroke-linecap:butt;stroke-linejoin:miter;stroke-opacity:1"
       d="m 413.64862,1020.9275 h 4.47984"
       id="path1663"
       sodipodi:nodetypes="cc" />
    <path
       style="fill:none;stroke:#ffffff;stroke-width:1px;stroke-linecap:butt;stroke-linejoin:miter;stroke-opacity:1"
       d="m 413.64862,1013.6333 h 4.47984"
       id="path1663-7"
       sodipodi:nodetypes="cc" />
    <path
       style="fill:none;stroke:#ffffff;stroke-width:1px;stroke-linecap:butt;stroke-linejoin:miter;stroke-opacity:1"
       d="m 413.64862,1006.3392 h 4.47984"
       id="path1663-7-56"
       sodipodi:nodetypes="cc" />
    <path
       style="fill:none;stroke:#ffffff;stroke-width:1px;stroke-linecap:butt;stroke-linejoin:miter;stroke-opacity:1"
       d="m 413.64862,999.04496 h 4.47984"
       id="path1663-7-1"
       sodipodi:nodetypes="cc" />
    <path
       style="fill:none;stroke:#ffffff;stroke-width:1px;stroke-linecap:butt;stroke-linejoin:miter;stroke-opacity:1"
       d="m 346.85688,1021.0237 v -4.4798"
       id="path1663-7-1-9"
       sodipodi:nodetypes="cc" />
    <path
       style="fill:none;stroke:#ffffff;stroke-width:1px;stroke-linecap:butt;stroke-linejoin:miter;stroke-opacity:1"
       d="m 337.3846,1021.0237 v -4.4798"
       id="path1663-7-1-9-3"
       sodipodi:nodetypes="cc" />
    <path
       style="fill:none;stroke:#ffffff;stroke-width:1px;stroke-linecap:butt;stroke-linejoin:miter;stroke-opacity:1"
       d="m 327.91233,1021.0237 v -4.4798"
       id="path1663-7-1-9-6"
       sodipodi:nodetypes="cc" />
    <path
       style="fill:none;stroke:#ffffff;stroke-width:1px;stroke-linecap:butt;stroke-linejoin:miter;stroke-opacity:1"
       d="m 318.44005,1021.0237 v -4.4798"
       id="path1663-7-1-9-0"
       sodipodi:nodetypes="cc" />
    <path
       style="fill:none;stroke:#ffffff;stroke-width:1px;stroke-linecap:butt;stroke-linejoin:miter;stroke-opacity:1"
       d="m 308.96778,1021.0237 v -4.4798"
       id="path1663-7-1-9-0-7"
       sodipodi:nodetypes="cc" />
    <path
       style="fill:none;stroke:#ffffff;stroke-width:1px;stroke-linecap:butt;stroke-linejoin:miter;stroke-opacity:1"
       d="m 342.12599,1021.021 -0.0105,-1.9722"
       id="path1663-7-1-9-62"
       sodipodi:nodetypes="cc" />
    <path
       style="fill:none;stroke:#ffffff;stroke-width:1px;stroke-linecap:butt;stroke-linejoin:miter;stroke-opacity:1"
       d="m 416.15353,1002.6973 1.97227,-0.011"
       id="path1663-7-1-9-62-9"
       sodipodi:nodetypes="cc" />
    <path
       style="fill:none;stroke:#ffffff;stroke-width:1px;stroke-linecap:butt;stroke-linejoin:miter;stroke-opacity:1"
       d="m 416.15353,1009.9915 1.97227,-0.01"
       id="path1663-7-1-9-62-9-2"
       sodipodi:nodetypes="cc" />
    <path
       style="fill:none;stroke:#ffffff;stroke-width:1px;stroke-linecap:butt;stroke-linejoin:miter;stroke-opacity:1"
       d="m 416.15353,1017.2857 1.97227,-0.01"
       id="path1663-7-1-9-62-9-0"
       sodipodi:nodetypes="cc" />
    <path
       style="fill:none;stroke:#ffffff;stroke-width:1px;stroke-linecap:butt;stroke-linejoin:miter;stroke-opacity:1"
       d="m 416.15353,1024.5799 1.97227,-0.01"
       id="path1663-7-1-9-62-9-23"
       sodipodi:nodetypes="cc" />
    <path
       style="fill:none;stroke:#ffffff;stroke-width:1px;stroke-linecap:butt;stroke-linejoin:miter;stroke-opacity:1"
       d="m 332.65372,1021.021 -0.0105,-1.9722"
       id="path1663-7-1-9-62-6"
       sodipodi:nodetypes="cc" />
    <path
       style="fill:none;stroke:#ffffff;stroke-width:1px;stroke-linecap:butt;stroke-linejoin:miter;stroke-opacity:1"
       d="m 323.18144,1021.021 -0.0105,-1.9722"
       id="path1663-7-1-9-62-1"
       sodipodi:nodetypes="cc" />
    <path
       style="fill:none;stroke:#ffffff;stroke-width:1px;stroke-linecap:butt;stroke-linejoin:miter;stroke-opacity:1"
       d="m 313.70917,1021.021 -0.0105,-1.9722"
       id="path1663-7-1-9-62-8"
       sodipodi:nodetypes="cc" />
    <path
       style="fill:none;stroke:#ffffff;stroke-width:1px;stroke-linecap:butt;stroke-linejoin:miter;stroke-opacity:1"
       d="m 413.64862,1028.2217 h 4.47984"
       id="path1663-7-27"
       sodipodi:nodetypes="cc" />
    <path
       style="fill:none;stroke:#ffffff;stroke-width:1px;stroke-linecap:butt;stroke-linejoin:miter;stroke-opacity:1"
       d="m 413.64862,1035.5159 h 4.47984"
       id="path1663-7-0"
       sodipodi:nodetypes="cc" />
  </g>
</svg>
